.------------------------------------------------------------------.-----------.
|             ~~~||    ~|###|....|~~|           ~~~~       ||      |
|     @@@   ~~~~ |~     |###|....| ||   ~~ ~     ~~~~~     ||      |
|     ++@        ||     |###|....| ||                      ~~      |
|     @@@        ||     |###|....| ||            ~~~~      ||      |
|    @@@@@       ||     |###|....| ||           ~~~~       |~~~~   |
|    @@@@@-      ||     |###|....| || ,,,,,,,              ||~~~~  |
|   ,/|,/|,      ||   `@|###|....|,,,/       \,,,,,        ||      |
|,,/       \,,,, || ,,,,|###|....|,,,,             \,,,,,, ||      |
|             ,,\,,/    |###|....|    \,,,,,,,            \,,      |
|       ,,,,,/          |###|....|@@          \,,,,,,        \     | 
|   ,,,/                |###|....|..@                \,,,,,   \,,,,|
|,,/                    |###|....|@@@           @@         \,,,,   .-----------.
|                       |###|....|@@@@@         "@              \,,,,,/        |
|                       |###|....|@@@@@@~      @@@@,                           |
|        @@@@           |###|....|||,||       ,/|||,,,,                        |
|       @@@@@@@         |###|.../.\    \,,,,,/         \,,,,                   |
|     &@@@@@@@@@@@@     |###|../...\                                           |
|     ,||,,,||,,@--     |###|./..../                             88808         |
|                       /####\..../                          ,,,008880088,,,   |
|                      /######\../                                             |
|                     /________\/                                              |
.----------------------------------------------------------------------~Truth~-.
|
|
|
|
.------------------------------------------------------------------------------.
